SuksesSuksesSuksesSuksesSukses 12-02-2013
Sukses 12-02-2013 04:45:05
Sukses 12-02-2013 05:45:04
Sukses 12-02-2013 06:45:05
Sukses 12-02-2013 07:45:06
Sukses 12-02-2013 08:45:08
Sukses 12-02-2013 09:45:06
Sukses 12-02-2013 10:45:06
